%!PS-Adobe-3.0 EPSF-3.0
%%Creator: GIMP PostScript file plugin V 1,17 by Peter Kirchgessner
%%Title: removeLabels-black.eps
%%CreationDate: Fri Nov 27 09:07:38 2015
%%DocumentData: Clean7Bit
%%LanguageLevel: 2
%%Pages: 1
%%BoundingBox: 14 14 527 527
%%EndComments
%%BeginProlog
% Use own dictionary to avoid conflicts
10 dict begin
%%EndProlog
%%Page: 1 1
% Translate for offset
14.173228346456694 14.173228346456694 translate
% Translate to begin of first scanline
0 511.93600799900014 translate
511.93600799900014 -511.93600799900014 scale
% Image geometry
512 512 8
% Transformation matrix
[ 512 0 0 512 0 0 ]
% Strings to hold RGB-samples per scanline
/rstr 512 string def
/gstr 512 string def
/bstr 512 string def
{currentfile /ASCII85Decode filter /RunLengthDecode filter rstr readstring pop}
{currentfile /ASCII85Decode filter /RunLengthDecode filter gstr readstring pop}
{currentfile /ASCII85Decode filter /RunLengthDecode filter bstr readstring pop}
true 3
%%BeginData:        42242 ASCII Bytes
colorimage
JH16$JH16$J,~>
JH16$JH16$J,~>
JH16$JH16$J,~>
JH16$JH16$J,~>
JH16$JH16$J,~>
JH16$JH16$J,~>
JH16$JH16$J,~>
JH16$JH16$J,~>
JH16$JH16$J,~>
JH16$JH16$J,~>
JH16$JH16$J,~>
JH16$JH16$J,~>
JH16$JH16$J,~>
JH16$JH16$J,~>
JH16$JH16$J,~>
JH16$JH16$J,~>
JH16$JH16$J,~>
JH16$JH16$J,~>
JH16$JH16$J,~>
JH16$JH16$J,~>
JH16$JH16$J,~>
JH16$JH16$J,~>
JH16$JH16$J,~>
JH16$JH16$J,~>
JH16$JH16$J,~>
JH16$JH16$J,~>
JH16$JH16$J,~>
JH16$JH16$J,~>
JH16$JH16$J,~>
JH16$JH16$J,~>
JH16$JH16$J,~>
JH16$JH16$J,~>
JH16$JH16$J,~>
JH16$JH16$J,~>
JH16$JH16$J,~>
JH16$JH16$J,~>
JH16$JH16$J,~>
JH16$JH16$J,~>
JH16$JH16$J,~>
JH16$JH16$J,~>
JH16$JH16$J,~>
JH16$JH16$J,~>
JH16$JH16$J,~>
JH16$JH16$J,~>
JH16$JH16$J,~>
JH16$JH16$J,~>
JH16$JH16$J,~>
JH16$JH16$J,~>
JH16$JH16$J,~>
JH16$JH16$J,~>
JH16$JH16$J,~>
JH16$JH16$J,~>
JH16$JH16$J,~>
JH16$JH16$J,~>
JH16$JH16$J,~>
JH16$JH16$J,~>
JH16$JH16$J,~>
JH16$JH16$J,~>
JH16$JH16$J,~>
JH16$JH16$J,~>
JH16$JH16$J,~>
JH16$JH16$J,~>
JH16$JH16$J,~>
li;V:JcC<$XT.SdJ,~>
li;V:JcC<$XT.SdJ,~>
li;V:JcC<$XT.SdJ,~>
li;V:JcC<$XT.SdJ,~>
li;V:JcC<$XT.SdJ,~>
li;V:JcC<$XT.SdJ,~>
li;V:JcC<$XT.SdJ,~>
li;V:JcC<$XT.SdJ,~>
li;V:JcC<$XT.SdJ,~>
li;V:JcC<$XT.SdJ,~>
li;V:JcC<$XT.SdJ,~>
li;V:JcC<$XT.SdJ,~>
li;V:JcC<$XT.SdJ,~>
li;V:JcC<$XT.SdJ,~>
li;V:JcC<$XT.SdJ,~>
li;V:JcC<$XT.SdJ,~>
li;V:JcC<$XT.SdJ,~>
li;V:JcC<$XT.SdJ,~>
li;V:JcC<$XT.SdJ,~>
li;V:JcC<$XT.SdJ,~>
li;V:JcC<$XT.SdJ,~>
li;V:JcC<$XT.SdJ,~>
li;V:JcC<$XT.SdJ,~>
li;V:JcC<$XT.SdJ,~>
li;V:JcC<$XT.SdJ,~>
li;V:JcC<$XT.SdJ,~>
li;V:JcC<$XT.SdJ,~>
li;V:JcC<$XT.SdJ,~>
li;V:JcC<$XT.SdJ,~>
li;V:JcC<$XT.SdJ,~>
li;V:JcC<$XT.SdJ,~>
li;V:JcC<$XT.SdJ,~>
li;V:JcC<$XT.SdJ,~>
li?GQX8mhOJcG<@Y5n:rlMuG~>
li?GQX8mhOJcG<@Y5n:rlMuG~>
li?GQX8mhOJcG<@Y5n:rlMuG~>
li?GQX8mhOJcG<@Y5n:rlMuG~>
li?GQX8mhOJcG<@Y5n:rlMuG~>
li?GQX8mhOJcG<@Y5n:rlMuG~>
li?GQX8mhOJcG<@Y5n:rlMuG~>
li?GQX8mhOJcG<@Y5n:rlMuG~>
li?GQX8mhOJcG<@Y5n:rlMuG~>
li?GQX8mhOJcG<@Y5n:rlMuG~>
li?GQX8mhOJcG<@Y5n:rlMuG~>
li?GQX8mhOJcG<@Y5n:rlMuG~>
li?GQX8mhOJcG<@Y5n:rlMuG~>
li?GQX8mhOJcG<@Y5n:rlMuG~>
li?GQX8mhOJcG<@Y5n:rlMuG~>
li?GQX8mhOJcG<@Y5n:rlMuG~>
li?GQX8mhOJcG<@Y5n:rlMuG~>
li?GQX8mhOJcG<@Y5n:rlMuG~>
li?GQX8mhOJcG<@Y5n:rlMuG~>
li?GQX8mhOJcG<@Y5n:rlMuG~>
li?GQX8mhOJcG<@Y5n:rlMuG~>
li?GQX8mhOJcG<@Y5n:rlMuG~>
li?GQX8mhOJcG<@Y5n:rlMuG~>
li?GQX8mhOJcG<@Y5n:rlMuG~>
li?GQX8mhOJcG<@Y5n:rlMuG~>
li?GQX8mhOJcG<@Y5n:rlMuG~>
li?GQX8mhOJcG<@Y5n:rlMuG~>
li?GQX8mhOJcG<@Y5n:rlMuG~>
li?GQX8mhOJcG<@Y5n:rlMuG~>
li?GQX8mhOJcG<@Y5n:rlMuG~>
li?GQX8mhOJcG<@Y5n:rlMuG~>
li?GQX8mhOJcG<@Y5n:rlMuG~>
li?GQX8mhOJcG<@Y5n:rlMuG~>
li?GQX8mhOJcG<@Y5n:rlMuG~>
li?GQX8mhOJcG<@Y5n:rlMuG~>
li?GQX8mhOJcG<@Y5n:rlMuG~>
li?GQX8mhOJcG<@Y5n:rlMuG~>
li?GQX8mhOJcG<@Y5n:rlMuG~>
li?GQX8mhOJcG<@Y5n:rlMuG~>
li?GQX8mhOJcG<@Y5n:rlMuG~>
li?GQX8mhOJcG<@Y5n:rlMuG~>
li?GQX8mhOJcG<@Y5n:rlMuG~>
li?GQX8mhOJcG<@Y5n:rlMuG~>
li?GQX8mhOJcG<@Y5n:rlMuG~>
li?GQX8mhOJcG<@Y5n:rlMuG~>
li?GQX8mhOJcG<@Y5n:rlMuG~>
li?GQX8mhOJcG<@Y5n:rlMuG~>
li?GQX8mhOJcG<@Y5n:rlMuG~>
li?GQX8mhOJcG<@Y5n:rlMuG~>
li?GQX8mhOJcG<@Y5n:rlMuG~>
li?GQX8mhOJcG<@Y5n:rlMuG~>
li?GQX8mhOJcG<@Y5n:rlMuG~>
li?GQX8mhOJcG<@Y5n:rlMuG~>
li?GQX8mhOJcG<@Y5n:rlMuG~>
li?GQX8mhOJcG<@Y5n:rlMuG~>
li?GQX8mhOJcG<@Y5n:rlMuG~>
li?GQX8mhOJcG<@Y5n:rlMuG~>
li?GQX8mhOJcG<@Y5n:rlMuG~>
li?GQX8mhOJcG<@Y5n:rlMuG~>
li?GQX8mhOJcG<@Y5n:rlMuG~>
li?GQX8mhOJcG<@Y5n:rlMuG~>
li?GQX8mhOJcG<@Y5n:rlMuG~>
li?GQX8mhOJcG<@Y5n:rlMuG~>
li?GQX8mhOJcG<@Y5n:rlMuG~>
li?GQX8mhOJcG<@Y5n:rlMuG~>
li?GQX8mhOJcG<@Y5n:rlMuG~>
li?GQX8mhOJcG<@Y5n:rlMuG~>
li?GQX8mhOJcG<@Y5n:rlMuG~>
li?GQX8mhOJcG<@Y5n:rlMuG~>
li?GQX8mhOJcG<@Y5n:rlMuG~>
li?GQX8mhOJcG<@Y5n:rlMuG~>
li?GQX8mhOJcG<@Y5n:rlMuG~>
li?GQX8mhOJcG<@Y5n:rlMuG~>
li?GQX8mhOJcG<@Y5n:rlMuG~>
li?GQX8mhOJcG<@Y5n:rlMuG~>
li?GQX8mhOJcG<@Y5n:rlMuG~>
li?GQX8mhOJcG<@Y5n:rlMuG~>
li?GQX8mhOJcG<@Y5n:rlMuG~>
li?GQX8mhOJcG<@Y5n:rlMuG~>
li?GQX8mhOJcG<@Y5n:rlMuG~>
li?GQX8mhOJcG<@Y5n:rlMuG~>
li?GQX8mhOJcG<@Y5n:rlMuG~>
li?GQX8mhOJcG<@Y5n:rlMuG~>
li?GQX8mhOJcG<@Y5n:rlMuG~>
li?GQX8mhOJcG<@Y5n:rlMuG~>
li?GQX8mhOJcG<@Y5n:rlMuG~>
li?GQX8mhOJcG<@Y5n:rlMuG~>
li?GQX8mhOJcG<@Y5n:rlMuG~>
li?GQX8mhOJcG<@Y5n:rlMuG~>
li?GQX8mhOJcG<@Y5n:rlMuG~>
li?GQX8mhOJcG<@Y5n:rlMuG~>
li?GQX8mhOJcG<@Y5n:rlMuG~>
li?GQX8mhOJcG<@Y5n:rlMuG~>
li?GQX8mhOJcG<@Y5n:rlMuG~>
li?GQX8mhOJcG<@Y5n:rlMuG~>
li?GQX8mhOJcG<@Y5n:rlMuG~>
li?GQX8mhOJcG<@Y5n:rlMuG~>
li?GQX8mhOJcG<@Y5n:rlMuG~>
li?GQX8mhOJcG<@Y5n:rlMuG~>
li?GQX8mhOJcG<@Y5n:rlMuG~>
li?GQX8mhOJcG<@Y5n:rlMuG~>
li?GQX8mhOJcG<@Y5n:rlMuG~>
li?GQX8mhOJcG<@Y5n:rlMuG~>
li?GQX8mhOJcG<@Y5n:rlMuG~>
li?GQX8mhOJcG<@Y5n:rlMuG~>
li?GQX8mhOJcG<@Y5n:rlMuG~>
li?GQX8mhOJcG<@Y5n:rlMuG~>
li?GQX8mhOJcG<@Y5n:rlMuG~>
li?GQX8mhOJcG<@Y5n:rlMuG~>
li?GQX8mhOJcG<@Y5n:rlMuG~>
li?GQX8mhOJcG<@Y5n:rlMuG~>
li?GQX8mhOJcG<@Y5n:rlMuG~>
li?GQX8mhOJcG<@Y5n:rlMuG~>
li?GQX8mhOJcG<@Y5n:rlMuG~>
li?GQX8mhOJcG<@Y5n:rlMuG~>
li?GQX8mhOJcG<@Y5n:rlMuG~>
li?GQX8mhOJcG<@Y5n:rlMuG~>
li?GQX8mhOJcG<@Y5n:rlMuG~>
li?GQX8mhOJcG<@Y5n:rlMuG~>
li?GQX8mhOJcG<@Y5n:rlMuG~>
li?GQX8mhOJcG<@Y5n:rlMuG~>
li?GQX8mhOJcG<@Y5n:rlMuG~>
li?GQX8mhOJcG<@Y5n:rlMuG~>
li?GQX8mhOJcG<@Y5n:rlMuG~>
li?GQX8mhOJcG<@Y5n:rlMuG~>
li?GQX8mhOJcG<@Y5n:rlMuG~>
li?GQX8mhOJcG<@Y5n:rlMuG~>
li?GQX8mhOJcG<@Y5n:rlMuG~>
li?GQX8mhOJcG<@Y5n:rlMuG~>
li?GQX8mhOJcG<@Y5n:rlMuG~>
li?GQX8mhOJcG<@Y5n:rlMuG~>
li?GQX8mhOJcG<@Y5n:rlMuG~>
li?GQX8mhOJcG<@Y5n:rlMuG~>
li?GQX8mhOJcG<@Y5n:rlMuG~>
li?GQX8mhOJcG<@Y5n:rlMuG~>
li?GQX8mhOJcG<@Y5n:rlMuG~>
li?GQX8mhOJcG<@Y5n:rlMuG~>
li?GQX8mhOJcG<@Y5n:rlMuG~>
li?GQX8mhOJcG<@Y5n:rlMuG~>
li?GQX8mhOJcG<@Y5n:rlMuG~>
li?GQX8mhOJcG<@Y5n:rlMuG~>
li?GQX8mhOJcG<@Y5n:rlMuG~>
li?GQX8mhOJcG<@Y5n:rlMuG~>
li?GQX8mhOJcG<@Y5n:rlMuG~>
li?GQX8mhOJcG<@Y5n:rlMuG~>
li?GQX8mhOJcG<@Y5n:rlMuG~>
li?GQX8mhOJcG<@Y5n:rlMuG~>
li?GQX8mhOJcG<@Y5n:rlMuG~>
li?GQX8mhOJcG<@Y5n:rlMuG~>
li?GQX8mhOJcG<@Y5n:rlMuG~>
li?GQX8mhOJcG<@Y5n:rlMuG~>
li?GQX8mhOJcG<@Y5n:rlMuG~>
li?GQX8mhOJcG<@Y5n:rlMuG~>
li?GQX8mhOJcG<@Y5n:rlMuG~>
li?GQX8mhOJcG<@Y5n:rlMuG~>
li?GQX8mhOJcG<@Y5n:rlMuG~>
li?GQX8mhOJcG<@Y5n:rlMuG~>
li?GQX8mhOJcG<@Y5n:rlMuG~>
li?GQX8mhOJcG<@Y5n:rlMuG~>
li?GQX8mhOJcG<@Y5n:rlMuG~>
li?GQX8mhOJcG<@Y5n:rlMuG~>
li?GQX8mhOJcG<@Y5n:rlMuG~>
li?GQX8mhOJcG<@Y5n:rlMuG~>
li?GQX8mhOJcG<@Y5n:rlMuG~>
li?GQX8mhOJcG<@Y5n:rlMuG~>
li?GQX8mhOJcG<@Y5n:rlMuG~>
li?GQX8mhOJcG<@Y5n:rlMuG~>
li?GQX8mhOJcG<@Y5n:rlMuG~>
li?GQX8mhOJcG<@Y5n:rlMuG~>
li?GQX8mhOJcG<@Y5n:rlMuG~>
li?GQX8mhOJcG<@Y5n:rlMuG~>
li?GQX8mhOJcG<@Y5n:rlMuG~>
li?GQX8mhOJcG<@Y5n:rlMuG~>
li?GQX8mhOJcG<@Y5n:rlMuG~>
li?GQX8mhOJcG<@Y5n:rlMuG~>
li?GQX8mhOJcG<@Y5n:rlMuG~>
li?GQX8mhOJcG<@Y5n:rlMuG~>
li?GQX8mhOJcG<@Y5n:rlMuG~>
li?GQX8mhOJcG<@Y5n:rlMuG~>
li?GQX8mhOJcG<@Y5n:rlMuG~>
li?GQX8mhOJcG<@Y5n:rlMuG~>
li?GQX8mhOJcG<@Y5n:rlMuG~>
li?GQX8mhOJcG<@Y5n:rlMuG~>
li?GQX8mhOJcG<@Y5n:rlMuG~>
li?GQX8mhOJcG<@Y5n:rlMuG~>
li?GQX8mhOJcG<@Y5n:rlMuG~>
li?GQX8mhOJcG<@Y5n:rlMuG~>
li?GQX8mhOJcG<@Y5n:rlMuG~>
li?GQX8mhOJcG<@Y5n:rlMuG~>
li?GQX8mhOJcG<@Y5n:rlMuG~>
li?GQX8mhOJcG<@Y5n:rlMuG~>
li?GQX8mhOJcG<@Y5n:rlMuG~>
li?GQX8mhOJcG<@Y5n:rlMuG~>
li?GQX8mhOJcG<@Y5n:rlMuG~>
li?GQX8mhOJcG<@Y5n:rlMuG~>
li?GQX8mhOJcG<@Y5n:rlMuG~>
li?GQX8mhOJcG<@Y5n:rlMuG~>
li?GQX8mhOJcG<@Y5n:rlMuG~>
li?GQX8mhOJcG<@Y5n:rlMuG~>
li?GQX8mhOJcG<@Y5n:rlMuG~>
li?GQX8mhOJcG<@Y5n:rlMuG~>
li?GQX8mhOJcG<@Y5n:rlMuG~>
li?GQX8mhOJcG<@Y5n:rlMuG~>
li?GQX8mhOJcG<@Y5n:rlMuG~>
li?GQX8mhOJcG<@Y5n:rlMuG~>
li?GQX8mhOJcG<@Y5n:rlMuG~>
li?GQX8mhOJcG<@Y5n:rlMuG~>
li?GQX8mhOJcG<@Y5n:rlMuG~>
li?GQX8mhOJcG<@Y5n:rlMuG~>
li?GQX8mhOJcG<@Y5n:rlMuG~>
li?GQX8mhOJcG<@Y5n:rlMuG~>
li?GQX8mhOJcG<@Y5n:rlMuG~>
li?GQX8mhOJcG<@Y5n:rlMuG~>
li?GQX8mhOJcG<@Y5n:rlMuG~>
li?GQX8mhOJcG<@Y5n:rlMuG~>
li?GQX8mhOJcG<@Y5n:rlMuG~>
li?GQX8mhOJcG<@Y5n:rlMuG~>
li?GQX8mhOJcG<@Y5n:rlMuG~>
li?GQX8mhOJcG<@Y5n:rlMuG~>
li?GQX8mhOJcG<@Y5n:rlMuG~>
li?GQX8mhOJcG<@Y5n:rlMuG~>
li?GQX8mhOJcG<@Y5n:rlMuG~>
li?GQX8mhOJcG<@Y5n:rlMuG~>
li?GQX8mhOJcG<@Y5n:rlMuG~>
li?GQX8mhOJcG<@Y5n:rlMuG~>
li?GQX8mhOJcG<@Y5n:rlMuG~>
li?GQX8mhOJcG<@Y5n:rlMuG~>
li?GQX8mhOJcG<@Y5n:rlMuG~>
li?GQX8mhOJcG<@Y5n:rlMuG~>
li?GQX8mhOJcG<@Y5n:rlMuG~>
li?GQX8mhOJcG<@Y5n:rlMuG~>
li?GQX8mhOJcG<@Y5n:rlMuG~>
li?GQX8mhOJcG<@Y5n:rlMuG~>
li?GQX8mhOJcG<@Y5n:rlMuG~>
li?GQX8mhOJcG<@Y5n:rlMuG~>
li?GQX8mhOJcG<@Y5n:rlMuG~>
li?GQX8mhOJcG<@Y5n:rlMuG~>
li?GQX8mhOJcG<@Y5n:rlMuG~>
li?GQX8mhOJcG<@Y5n:rlMuG~>
li?GQX8mhOJcG<@Y5n:rlMuG~>
li?GQX8mhOJcG<@Y5n:rlMuG~>
li?GQX8mhOJcG<@Y5n:rlMuG~>
li?GQX8mhOJcG<@Y5n:rlMuG~>
li?GQX8mhOJcG<@Y5n:rlMuG~>
li?GQX8mhOJcG<@Y5n:rlMuG~>
li?GQX8mhOJcG<@Y5n:rlMuG~>
li?GQX8mhOJcG<@Y5n:rlMuG~>
li?GQX8mhOJcG<@Y5n:rlMuG~>
li?GQX8mhOJcG<@Y5n:rlMuG~>
li?GQX8mhOJcG<@Y5n:rlMuG~>
li?GQX8mhOJcG<@Y5n:rlMuG~>
li?GQX8mhOJcG<@Y5n:rlMuG~>
li?GQX8mhOJcG<@Y5n:rlMuG~>
li?GQX8mhOJcG<@Y5n:rlMuG~>
li?GQX8mhOJcG<@Y5n:rlMuG~>
li?GQX8mhOJcG<@Y5n:rlMuG~>
li?GQX8mhOJcG<@Y5n:rlMuG~>
li?GQX8mhOJcG<@Y5n:rlMuG~>
li?GQX8mhOJcG<@Y5n:rlMuG~>
li?GQX8mhOJcG<@Y5n:rlMuG~>
li?GQX8mhOJcG<@Y5n:rlMuG~>
li?GQX8mhOJcG<@Y5n:rlMuG~>
li?GQX8mhOJcG<@Y5n:rlMuG~>
li?GQX8mhOJcG<@Y5n:rlMuG~>
li?GQX8mhOJcG<@Y5n:rlMuG~>
li?GQX8mhOJcG<@Y5n:rlMuG~>
li?GQX8mhOJcG<@Y5n:rlMuG~>
li?GQX8mhOJcG<@Y5n:rlMuG~>
li?GQX8mhOJcG<@Y5n:rlMuG~>
li?GQX8mhOJcG<@Y5n:rlMuG~>
li?GQX8mhOJcG<@Y5n:rlMuG~>
li?GQX8mhOJcG<@Y5n:rlMuG~>
li?GQX8mhOJcG<@Y5n:rlMuG~>
li?GQX8mhOJcG<@Y5n:rlMuG~>
li?GQX8mhOJcG<@Y5n:rlMuG~>
li?GQX8mhOJcG<@Y5n:rlMuG~>
li?GQX8mhOJcG<@Y5n:rlMuG~>
li?GQX8mhOJcG<@Y5n:rlMuG~>
li?GQX8mhOJcG<@Y5n:rlMuG~>
li?GQX8mhOJcG<@Y5n:rlMuG~>
li?GQX8mhOJcG<@Y5n:rlMuG~>
li?GQX8mhOJcG<@Y5n:rlMuG~>
li?GQX8mhOJcG<@Y5n:rlMuG~>
li?GQX8mhOJcG<@Y5n:rlMuG~>
li?GQX8mhOJcG<@Y5n:rlMuG~>
li?GQX8mhOJcG<@Y5n:rlMuG~>
li?GQX8mhOJcG<@Y5n:rlMuG~>
li?GQX8mhOJcG<@Y5n:rlMuG~>
li?GQX8mhOJcG<@Y5n:rlMuG~>
li?GQX8mhOJcG<@Y5n:rlMuG~>
li?GQX8mhOJcG<@Y5n:rlMuG~>
li?GQX8mhOJcG<@Y5n:rlMuG~>
li?GQX8mhOJcG<@Y5n:rlMuG~>
li?GQX8mhOJcG<@Y5n:rlMuG~>
li?GQX8mhOJcG<@Y5n:rlMuG~>
li?GQX8mhOJcG<@Y5n:rlMuG~>
li?GQX8mhOJcG<@Y5n:rlMuG~>
li?GQX8mhOJcG<@Y5n:rlMuG~>
li?GQX8mhOJcG<@Y5n:rlMuG~>
li?GQX8mhOJcG<@Y5n:rlMuG~>
li?GQX8mhOJcG<@Y5n:rlMuG~>
li?GQX8mhOJcG<@Y5n:rlMuG~>
li?GQX8mhOJcG<@Y5n:rlMuG~>
li?GQX8mhOJcG<@Y5n:rlMuG~>
li?GQX8mhOJcG<@Y5n:rlMuG~>
li?GQX8mhOJcG<@Y5n:rlMuG~>
li?GQX8mhOJcG<@Y5n:rlMuG~>
li?GQX8mhOJcG<@Y5n:rlMuG~>
li?GQX8mhOJcG<@Y5n:rlMuG~>
li?GQX8mhOJcG<@Y5n:rlMuG~>
li?GQX8mhOJcG<@Y5n:rlMuG~>
li?GQX8mhOJcG<@Y5n:rlMuG~>
li?GQX8mhOJcG<@Y5n:rlMuG~>
li?GQX8mhOJcG<@Y5n:rlMuG~>
li?GQX8mhOJcG<@Y5n:rlMuG~>
li?GQX8mhOJcG<@Y5n:rlMuG~>
li?GQX8mhOJcG<@Y5n:rlMuG~>
li?GQX8mhOJcG<@Y5n:rlMuG~>
li?GQX8mhOJcG<@Y5n:rlMuG~>
li?GQX8mhOJcG<@Y5n:rlMuG~>
li?GQX8mhOJcG<@Y5n:rlMuG~>
li?GQX8mhOJcG<@Y5n:rlMuG~>
li?GQX8mhOJcG<@Y5n:rlMuG~>
li?GQX8mhOJcG<@Y5n:rlMuG~>
li?GQX8mhOJcG<@Y5n:rlMuG~>
li?GQX8mhOJcG<@Y5n:rlMuG~>
li?GQX8mhOJcG<@Y5n:rlMuG~>
li?GQX8mhOJcG<@Y5n:rlMuG~>
li?GQX8mhOJcG<@Y5n:rlMuG~>
li?GQX8mhOJcG<@Y5n:rlMuG~>
li?GQX8mhOJcG<@Y5n:rlMuG~>
li?GQX8mhOJcG<@Y5n:rlMuG~>
li?GQX8mhOJcG<@Y5n:rlMuG~>
li?GQX8mhOJcG<@Y5n:rlMuG~>
li?GQX8mhOJcG<@Y5n:rlMuG~>
li?GQX8mhOJcG<@Y5n:rlMuG~>
li?GQX8mhOJcG<@Y5n:rlMuG~>
li?GQX8mhOJcG<@Y5n:rlMuG~>
li?GQX8mhOJcG<@Y5n:rlMuG~>
li?GQX8mhOJcG<@Y5n:rlMuG~>
li?GQX8mhOJcG<@Y5n:rlMuG~>
li?GQX8mhOJcG<@Y5n:rlMuG~>
li?GQX8mhOJcG<@Y5n:rlMuG~>
li?GQX8mhOJcG<@Y5n:rlMuG~>
li?GQX8mhOJcG<@Y5n:rlMuG~>
li?GQX8mhOJcG<@Y5n:rlMuG~>
li?GQX8mhOJcG<@Y5n:rlMuG~>
li?GQX8mhOJcG<@Y5n:rlMuG~>
li?GQX8mhOJcG<@Y5n:rlMuG~>
li?GQX8mhOJcG<@Y5n:rlMuG~>
li?GQX8mhOJcG<@Y5n:rlMuG~>
li?GQX8mhOJcG<@Y5n:rlMuG~>
li?GQX8mhOJcG<@Y5n:rlMuG~>
li?GQX8mhOJcG<@Y5n:rlMuG~>
li?GQX8mhOJcG<@Y5n:rlMuG~>
li?GQX8mhOJcG<@Y5n:rlMuG~>
li?GQX8mhOJcG<@Y5n:rlMuG~>
li?GQX8mhOJcG<@Y5n:rlMuG~>
li?GQX8mhOJcG<@Y5n:rlMuG~>
li?GQX8mhOJcG<@Y5n:rlMuG~>
li?GQX8mhOJcG<@Y5n:rlMuG~>
li?GQX8mhOJcG<@Y5n:rlMuG~>
li?GQX8mhOJcG<@Y5n:rlMuG~>
li?GQX8mhOJcG<@Y5n:rlMuG~>
li?GQX8mhOJcG<@Y5n:rlMuG~>
li?GQX8mhOJcG<@Y5n:rlMuG~>
li?GQX8mhOJcG<@Y5n:rlMuG~>
li?GQX8mhOJcG<@Y5n:rlMuG~>
li?GQX8mhOJcG<@Y5n:rlMuG~>
li?GQX8mhOJcG<@Y5n:rlMuG~>
li?GQX8mhOJcG<@Y5n:rlMuG~>
li?GQX8mhOJcG<@Y5n:rlMuG~>
li?GQX8mhOJcG<@Y5n:rlMuG~>
li?GQX8mhOJcG<@Y5n:rlMuG~>
li?GQX8mhOJcG<@Y5n:rlMuG~>
li?GQX8mhOJcG<@Y5n:rlMuG~>
li?GQX8mhOJcG<@Y5n:rlMuG~>
li?GQX8mhOJcG<@Y5n:rlMuG~>
li?GQX8mhOJcG<@Y5n:rlMuG~>
li?GQX8mhOJcG<@Y5n:rlMuG~>
li?GQX8mhOJcG<@Y5n:rlMuG~>
li?GQX8mhOJcG<@Y5n:rlMuG~>
li?GQX8mhOJcG<@Y5n:rlMuG~>
li?GQX8mhOJcG<@Y5n:rlMuG~>
li?GQX8mhOJcG<@Y5n:rlMuG~>
li?GQX8mhOJcG<@Y5n:rlMuG~>
li?GQX8mhOJcG<@Y5n:rlMuG~>
li?GQX8mhOJcG<@Y5n:rlMuG~>
li?GQX8mhOJcG<@Y5n:rlMuG~>
li?GQX8mhOJcG<@Y5n:rlMuG~>
li?GQX8mhOJcG<@Y5n:rlMuG~>
li?GQX8mhOJcG<@Y5n:rlMuG~>
li?GQX8mhOJcG<@Y5n:rlMuG~>
li?GQX8mhOJcG<@Y5n:rlMuG~>
li?GQX8mhOJcG<@Y5n:rlMuG~>
li?GQX8mhOJcG<@Y5n:rlMuG~>
li?GQX8mhOJcG<@Y5n:rlMuG~>
li?GQX8mhOJcG<@Y5n:rlMuG~>
li?GQX8mhOJcG<@Y5n:rlMuG~>
li?GQX8mhOJcG<@Y5n:rlMuG~>
li?GQX8mhOJcG<@Y5n:rlMuG~>
li?GQX8mhOJcG<@Y5n:rlMuG~>
li?GQX8mhOJcG<@Y5n:rlMuG~>
li?GQX8mhOJcG<@Y5n:rlMuG~>
li?GQX8mhOJcG<@Y5n:rlMuG~>
li?GQX8mhOJcG<@Y5n:rlMuG~>
li?GQX8mhOJcG<@Y5n:rlMuG~>
li?GQX8mhOJcG<@Y5n:rlMuG~>
li?GQX8mhOJcG<@Y5n:rlMuG~>
li?GQX8mhOJcG<@Y5n:rlMuG~>
li?GQX8mhOJcG<@Y5n:rlMuG~>
li?GQX8mhOJcG<@Y5n:rlMuG~>
li?GQX8mhOJcG<@Y5n:rlMuG~>
li?GQX8mhOJcG<@Y5n:rlMuG~>
li?GQX8mhOJcG<@Y5n:rlMuG~>
li?GQX8mhOJcG<@Y5n:rlMuG~>
li?GQX8mhOJcG<@Y5n:rlMuG~>
li?GQX8mhOJcG<@Y5n:rlMuG~>
li?GQX8mhOJcG<@Y5n:rlMuG~>
li?GQX8mhOJcG<@Y5n:rlMuG~>
li?GQX8mhOJcG<@Y5n:rlMuG~>
li?GQX8mhOJcG<@Y5n:rlMuG~>
li?GQX8mhOJcG<@Y5n:rlMuG~>
li?GQX8mhOJcG<@Y5n:rlMuG~>
li?GQX8mhOJcG<@Y5n:rlMuG~>
li?GQX8mhOJcG<@Y5n:rlMuG~>
li?GQX8mhOJcG<@Y5n:rlMuG~>
li?GQX8mhOJcG<@Y5n:rlMuG~>
li?GQX8mhOJcG<@Y5n:rlMuG~>
li?GQX8mhOJcG<@Y5n:rlMuG~>
li?GQX8mhOJcG<@Y5n:rlMuG~>
li?GQX8mhOJcG<@Y5n:rlMuG~>
li?GQX8mhOJcG<@Y5n:rlMuG~>
li?GQX8mhOJcG<@Y5n:rlMuG~>
li?GQX8mhOJcG<@Y5n:rlMuG~>
li?GQX8mhOJcG<@Y5n:rlMuG~>
li?GQX8mhOJcG<@Y5n:rlMuG~>
li?GQX8mhOJcG<@Y5n:rlMuG~>
li?GQX8mhOJcG<@Y5n:rlMuG~>
li?GQX8mhOJcG<@Y5n:rlMuG~>
li?GQX8mhOJcG<@Y5n:rlMuG~>
li?GQX8mhOJcG<@Y5n:rlMuG~>
li?GQX8mhOJcG<@Y5n:rlMuG~>
li?GQX8mhOJcG<@Y5n:rlMuG~>
li?GQX8mhOJcG<@Y5n:rlMuG~>
li?GQX8mhOJcG<@Y5n:rlMuG~>
li?GQX8mhOJcG<@Y5n:rlMuG~>
li?GQX8mhOJcG<@Y5n:rlMuG~>
li?GQX8mhOJcG<@Y5n:rlMuG~>
li?GQX8mhOJcG<@Y5n:rlMuG~>
li?GQX8mhOJcG<@Y5n:rlMuG~>
li?GQX8mhOJcG<@Y5n:rlMuG~>
li?GQX8mhOJcG<@Y5n:rlMuG~>
li?GQX8mhOJcG<@Y5n:rlMuG~>
li?GQX8mhOJcG<@Y5n:rlMuG~>
li?GQX8mhOJcG<@Y5n:rlMuG~>
li?GQX8mhOJcG<@Y5n:rlMuG~>
li?GQX8mhOJcG<@Y5n:rlMuG~>
li?GQX8mhOJcG<@Y5n:rlMuG~>
li?GQX8mhOJcG<@Y5n:rlMuG~>
li?GQX8mhOJcG<@Y5n:rlMuG~>
li?GQX8mhOJcG<@Y5n:rlMuG~>
li?GQX8mhOJcG<@Y5n:rlMuG~>
li?GQX8mhOJcG<@Y5n:rlMuG~>
li?GQX8mhOJcG<@Y5n:rlMuG~>
li?GQX8mhOJcG<@Y5n:rlMuG~>
li?GQX8mhOJcG<@Y5n:rlMuG~>
li?GQX8mhOJcG<@Y5n:rlMuG~>
li?GQX8mhOJcG<@Y5n:rlMuG~>
li?GQX8mhOJcG<@Y5n:rlMuG~>
li?GQX8mhOJcG<@Y5n:rlMuG~>
li?GQX8mhOJcG<@Y5n:rlMuG~>
li?GQX8mhOJcG<@Y5n:rlMuG~>
li?GQX8mhOJcG<@Y5n:rlMuG~>
li?GQX8mhOJcG<@Y5n:rlMuG~>
li?GQX8mhOJcG<@Y5n:rlMuG~>
li?GQX8mhOJcG<@Y5n:rlMuG~>
li?GQX8mhOJcG<@Y5n:rlMuG~>
li?GQX8mhOJcG<@Y5n:rlMuG~>
li?GQX8mhOJcG<@Y5n:rlMuG~>
li?GQX8mhOJcG<@Y5n:rlMuG~>
li?GQX8mhOJcG<@Y5n:rlMuG~>
li?GQX8mhOJcG<@Y5n:rlMuG~>
li?GQX8mhOJcG<@Y5n:rlMuG~>
li?GQX8mhOJcG<@Y5n:rlMuG~>
li?GQX8mhOJcG<@Y5n:rlMuG~>
li?GQX8mhOJcG<@Y5n:rlMuG~>
li?GQX8mhOJcG<@Y5n:rlMuG~>
li?GQX8mhOJcG<@Y5n:rlMuG~>
li?GQX8mhOJcG<@Y5n:rlMuG~>
li?GQX8mhOJcG<@Y5n:rlMuG~>
li?GQX8mhOJcG<@Y5n:rlMuG~>
li?GQX8mhOJcG<@Y5n:rlMuG~>
li?GQX8mhOJcG<@Y5n:rlMuG~>
li?GQX8mhOJcG<@Y5n:rlMuG~>
li?GQX8mhOJcG<@Y5n:rlMuG~>
li?GQX8mhOJcG<@Y5n:rlMuG~>
li?GQX8mhOJcG<@Y5n:rlMuG~>
li?GQX8mhOJcG<@Y5n:rlMuG~>
li?GQX8mhOJcG<@Y5n:rlMuG~>
li?GQX8mhOJcG<@Y5n:rlMuG~>
li?GQX8mhOJcG<@Y5n:rlMuG~>
li?GQX8mhOJcG<@Y5n:rlMuG~>
li?GQX8mhOJcG<@Y5n:rlMuG~>
li?GQX8mhOJcG<@Y5n:rlMuG~>
li?GQX8mhOJcG<@Y5n:rlMuG~>
li?GQX8mhOJcG<@Y5n:rlMuG~>
li?GQX8mhOJcG<@Y5n:rlMuG~>
li?GQX8mhOJcG<@Y5n:rlMuG~>
li?GQX8mhOJcG<@Y5n:rlMuG~>
li?GQX8mhOJcG<@Y5n:rlMuG~>
li?GQX8mhOJcG<@Y5n:rlMuG~>
li?GQX8mhOJcG<@Y5n:rlMuG~>
li?GQX8mhOJcG<@Y5n:rlMuG~>
li?GQX8mhOJcG<@Y5n:rlMuG~>
li?GQX8mhOJcG<@Y5n:rlMuG~>
li?GQX8mhOJcG<@Y5n:rlMuG~>
li?GQX8mhOJcG<@Y5n:rlMuG~>
li?GQX8mhOJcG<@Y5n:rlMuG~>
li?GQX8mhOJcG<@Y5n:rlMuG~>
li?GQX8mhOJcG<@Y5n:rlMuG~>
li?GQX8mhOJcG<@Y5n:rlMuG~>
li?GQX8mhOJcG<@Y5n:rlMuG~>
li?GQX8mhOJcG<@Y5n:rlMuG~>
li?GQX8mhOJcG<@Y5n:rlMuG~>
li?GQX8mhOJcG<@Y5n:rlMuG~>
li?GQX8mhOJcG<@Y5n:rlMuG~>
li?GQX8mhOJcG<@Y5n:rlMuG~>
li?GQX8mhOJcG<@Y5n:rlMuG~>
li?GQX8mhOJcG<@Y5n:rlMuG~>
li?GQX8mhOJcG<@Y5n:rlMuG~>
li?GQX8mhOJcG<@Y5n:rlMuG~>
li?GQX8mhOJcG<@Y5n:rlMuG~>
li?GQX8mhOJcG<@Y5n:rlMuG~>
li?GQX8mhOJcG<@Y5n:rlMuG~>
li?GQX8mhOJcG<@Y5n:rlMuG~>
li?GQX8mhOJcG<@Y5n:rlMuG~>
li?GQX8mhOJcG<@Y5n:rlMuG~>
li?GQX8mhOJcG<@Y5n:rlMuG~>
li?GQX8mhOJcG<@Y5n:rlMuG~>
li?GQX8mhOJcG<@Y5n:rlMuG~>
li?GQX8mhOJcG<@Y5n:rlMuG~>
li?GQX8mhOJcG<@Y5n:rlMuG~>
li?GQX8mhOJcG<@Y5n:rlMuG~>
li?GQX8mhOJcG<@Y5n:rlMuG~>
li?GQX8mhOJcG<@Y5n:rlMuG~>
li?GQX8mhOJcG<@Y5n:rlMuG~>
li?GQX8mhOJcG<@Y5n:rlMuG~>
li?GQX8mhOJcG<@Y5n:rlMuG~>
li?GQX8mhOJcG<@Y5n:rlMuG~>
li?GQX8mhOJcG<@Y5n:rlMuG~>
li?GQX8mhOJcG<@Y5n:rlMuG~>
li?GQX8mhOJcG<@Y5n:rlMuG~>
li?GQX8mhOJcG<@Y5n:rlMuG~>
li?GQX8mhOJcG<@Y5n:rlMuG~>
li?GQX8mhOJcG<@Y5n:rlMuG~>
li?GQX8mhOJcG<@Y5n:rlMuG~>
li?GQX8mhOJcG<@Y5n:rlMuG~>
li?GQX8mhOJcG<@Y5n:rlMuG~>
li?GQX8mhOJcG<@Y5n:rlMuG~>
li?GQX8mhOJcG<@Y5n:rlMuG~>
li?GQX8mhOJcG<@Y5n:rlMuG~>
li?GQX8mhOJcG<@Y5n:rlMuG~>
li?GQX8mhOJcG<@Y5n:rlMuG~>
li?GQX8mhOJcG<@Y5n:rlMuG~>
li?GQX8mhOJcG<@Y5n:rlMuG~>
li?GQX8mhOJcG<@Y5n:rlMuG~>
li?GQX8mhOJcG<@Y5n:rlMuG~>
li?GQX8mhOJcG<@Y5n:rlMuG~>
li?GQX8mhOJcG<@Y5n:rlMuG~>
li?GQX8mhOJcG<@Y5n:rlMuG~>
li?GQX8mhOJcG<@Y5n:rlMuG~>
li?GQX8mhOJcG<@Y5n:rlMuG~>
li?GQX8mhOJcG<@Y5n:rlMuG~>
li?GQX8mhOJcG<@Y5n:rlMuG~>
li?GQX8mhOJcG<@Y5n:rlMuG~>
li?GQX8mhOJcG<@Y5n:rlMuG~>
li?GQX8mhOJcG<@Y5n:rlMuG~>
li?GQX8mhOJcG<@Y5n:rlMuG~>
li?GQX8mhOJcG<@Y5n:rlMuG~>
li?GQX8mhOJcG<@Y5n:rlMuG~>
li?GQX8mhOJcG<@Y5n:rlMuG~>
li?GQX8mhOJcG<@Y5n:rlMuG~>
li?GQX8mhOJcG<@Y5n:rlMuG~>
li?GQX8mhOJcG<@Y5n:rlMuG~>
li?GQX8mhOJcG<@Y5n:rlMuG~>
li?GQX8mhOJcG<@Y5n:rlMuG~>
li?GQX8mhOJcG<@Y5n:rlMuG~>
li?GQX8mhOJcG<@Y5n:rlMuG~>
li?GQX8mhOJcG<@Y5n:rlMuG~>
li?GQX8mhOJcG<@Y5n:rlMuG~>
li?GQX8mhOJcG<@Y5n:rlMuG~>
li?GQX8mhOJcG<@Y5n:rlMuG~>
li?GQX8mhOJcG<@Y5n:rlMuG~>
li?GQX8mhOJcG<@Y5n:rlMuG~>
li?GQX8mhOJcG<@Y5n:rlMuG~>
li?GQX8mhOJcG<@Y5n:rlMuG~>
li?GQX8mhOJcG<@Y5n:rlMuG~>
li?GQX8mhOJcG<@Y5n:rlMuG~>
li?GQX8mhOJcG<@Y5n:rlMuG~>
li?GQX8mhOJcG<@Y5n:rlMuG~>
li?GQX8mhOJcG<@Y5n:rlMuG~>
li?GQX8mhOJcG<@Y5n:rlMuG~>
li?GQX8mhOJcG<@Y5n:rlMuG~>
li?GQX8mhOJcG<@Y5n:rlMuG~>
li?GQX8mhOJcG<@Y5n:rlMuG~>
li?GQX8mhOJcG<@Y5n:rlMuG~>
li?GQX8mhOJcG<@Y5n:rlMuG~>
li?GQX8mhOJcG<@Y5n:rlMuG~>
li?GQX8mhOJcG<@Y5n:rlMuG~>
li?GQX8mhOJcG<@Y5n:rlMuG~>
li?GQX8mhOJcG<@Y5n:rlMuG~>
li?GQX8mhOoDeLaMuTs\pAaFYJ,~>
li?GQX8mhOoDeLaMuTs\pAaFYJ,~>
li?GQX8mhOoDeLaMuTs\pAaFYJ,~>
li?GQX8mhOo`+L_NW60^pAaFYJ,~>
li?GQX8mhOo`+L_NW60^pAaFYJ,~>
li?GQX8mhOo`+L_NW60^pAaFYJ,~>
li?GQX8mhOp&FU`N;p']pAaFYJ,~>
li?GQX8mhOp&FU`N;p']pAaFYJ,~>
li?GQX8mhOp&FU`N;p']pAaFYJ,~>
li?GQX8mhOp]'a`N;p']pAaFYJ,~>
li?GQX8mhOp]'a`N;p']pAaFYJ,~>
li?GQX8mhOp]'a`N;p']pAaFYJ,~>
li?GQX8mhOp]'^_NW60^pAaFYJ,~>
li?GQX8mhOp]'^_NW60^pAaFYJ,~>
li?GQX8mhOp]'^_NW60^pAaFYJ,~>
li?GQX8mhOp]'[^NrQ9_pAaFYJ,~>
li?GQX8mhOp]'[^NrQ9_pAaFYJ,~>
li?GQX8mhOp]'[^NrQ9_pAaFYJ,~>
li?GQX8mhOp]'X]O8lB`pAaFYJ,~>
li?GQX8mhOp]'X]O8lB`pAaFYJ,~>
li?GQX8mhOp]'X]O8lB`pAaFYJ,~>
li?GQX8mhOp]'U\OT2KapAaFYJ,~>
li?GQX8mhOp]'U\OT2KapAaFYJ,~>
li?GQX8mhOp]'U\OT2KapAaFYJ,~>
li?GQX8mhOp]'R[OoMTbpAaFYJ,~>
li?GQX8mhOp]'R[OoMTbpAaFYJ,~>
li?GQX8mhOp]'R[OoMTbpAaFYJ,~>
li?GQX8mhOp]'OZP5h]cpAaFYJ,~>
li?GQX8mhOp]'OZP5h]cpAaFYJ,~>
li?GQX8mhOp]'OZP5h]cpAaFYJ,~>
li?GQX8mhOp]'LYPQ.fdpAaFYJ,~>
li?GQX8mhOp]'LYPQ.fdpAaFYJ,~>
li?GQX8mhOp]'LYPQ.fdpAaFYJ,~>
li?GQX8mhOp]'IX!</8`Y5n:rlMuG~>
li?GQX8mhOp]'IX!</8`Y5n:rlMuG~>
li?GQX8mhOp]'IX!</8`Y5n:rlMuG~>
li?GQX8mhOp]'@UQiF5hpAaFYJ,~>
li?GQX8mhOp]'@UQiF5hpAaFYJ,~>
li?GQX8mhOp]'@UQiF5hpAaFYJ,~>
li?GQX8mhOp]':SRK'GjpAaFYJ,~>
li?GQX8mhOp]':SRK'GjpAaFYJ,~>
li?GQX8mhOp]':SRK'GjpAaFYJ,~>
li?GQX8mhOp&F+RRfBPkpAaFYJ,~>
li?GQX8mhOp&F+RRfBPkpAaFYJ,~>
li?GQX8mhOp&F+RRfBPkpAaFYJ,~>
li?GQX8mhOp&F+RRfBPkpAaFYJ,~>
li?GQX8mhOp&F+RRfBPkpAaFYJ,~>
li?GQX8mhOp&F+RRfBPkpAaFYJ,~>
li?GQX8mhOp&F+RRfBPkpAaFYJ,~>
li?GQX8mhOp&F+RRfBPkpAaFYJ,~>
li?GQX8mhOp&F+RRfBPkpAaFYJ,~>
li?GQX8mhOp&F+R!+q`#Y5n:rlMuG~>
li?GQX8mhOp&F+R!+q`#Y5n:rlMuG~>
li?GQX8mhOp&F+R!+q`#Y5n:rlMuG~>
li?GQX8mhOp&F%PSH#bmpAaFYJ,~>
li?GQX8mhOp&F%PSH#bmpAaFYJ,~>
li?GQX8mhOp&F%PSH#bmpAaFYJ,~>
li?GQX8mhOp&F"OSc>knpAaFYJ,~>
li?GQX8mhOp&F"OSc>knpAaFYJ,~>
li?GQX8mhOp&F"OSc>knpAaFYJ,~>
li?GQX8mhOp&EtNT)YtopAaFYJ,~>
li?GQX8mhOp&EtNT)YtopAaFYJ,~>
li?GQX8mhOp&EtNT)YtopAaFYJ,~>
li?GQX8mhOp&EqMTDu(ppAaFYJ,~>
li?GQX8mhOp&EqMTDu(ppAaFYJ,~>
li?GQX8mhOp&EqMTDu(ppAaFYJ,~>
li?GQX8mhOp&EnLT`;1qpAaFYJ,~>
li?GQX8mhOp&EnLT`;1qpAaFYJ,~>
li?GQX8mhOp&EnLT`;1qpAaFYJ,~>
li?GQX8mhOp&EkKU&V:rpAaFYJ,~>
li?GQX8mhOp&EkKU&V:rpAaFYJ,~>
li?GQX8mhOp&EkKU&V:rpAaFYJ,~>
li?GQX8oX-S,fAbY5n:rlMuG~>
li?GQX8oX-S,fAbY5n:rlMuG~>
li?GQX8oX-S,fAbY5n:rlMuG~>
li?GQX8o[.RK02aY5n:rlMuG~>
li?GQX8o[.RK02aY5n:rlMuG~>
li?GQX8o[.RK02aY5n:rlMuG~>
li?GQX8od1!</;bVZ3h"pAaFYJ,~>
li?GQX8od1!</;bVZ3h"pAaFYJ,~>
li?GQX8od1!</;bVZ3h"pAaFYJ,~>
li?GQX8od1PQ7Z^Y5n:rlMuG~>
li?GQX8od1PQ7Z^Y5n:rlMuG~>
li?GQX8od1PQ7Z^Y5n:rlMuG~>
li?GQX8oj3!<//^W;j%$pAaFYJ,~>
li?GQX8oj3!<//^W;j%$pAaFYJ,~>
li?GQX8oj3!<//^W;j%$pAaFYJ,~>
li?GQX8oj3OoVH\Y5n:rlMuG~>
li?GQX8oj3OoVH\Y5n:rlMuG~>
li?GQX8oj3OoVH\Y5n:rlMuG~>
li?GQX8om4O8u9[Y5n:rlMuG~>
li?GQX8om4O8u9[Y5n:rlMuG~>
li?GQX8om4O8u9[Y5n:rlMuG~>
li?GQX8os6!</#ZWW0.%pAaFYJ,~>
li?GQX8os6!</#ZWW0.%pAaFYJ,~>
li?GQX8os6!</#ZWW0.%pAaFYJ,~>
li?GQX8p!7Mu]mXY5n:rlMuG~>
li?GQX8p!7Mu]mXY5n:rlMuG~>
li?GQX8p!7Mu]mXY5n:rlMuG~>
li?GQX8p$8!<.iUXT,I(pAaFYJ,~>
li?GQX8p$8!<.iUXT,I(pAaFYJ,~>
li?GQX8p$8!<.iUXT,I(pAaFYJ,~>
li?GQX8p!7M?'aXY5n:rlMuG~>
li?GQX8p!7M?'aXY5n:rlMuG~>
li?GQX8p!7M?'aXY5n:rlMuG~>
li?GQX8p'9L&eCVY5n:rlMuG~>
li?GQX8p'9L&eCVY5n:rlMuG~>
li?GQX8p'9L&eCVY5n:rlMuG~>
li?GQX8p'9JcN+VY5n:rlMuG~>
li?GQX8p'9JcN+VY5n:rlMuG~>
li?GQX8p'9JcN+VY5n:rlMuG~>
li?GQX8p'9JcN+VY5n:rlMuG~>
li?GQX8p'9JcN+VY5n:rlMuG~>
li?GQX8p'9JcN+VY5n:rlMuG~>
li?GQX8p*:JH5]M[/[<0pAaFYJ,~>
li?GQX8p*:JH5]M[/[<0pAaFYJ,~>
li?GQX8p*:JH5]M[/[<0pAaFYJ,~>
li?GQX8p*:JH5]M[/[<0pAaFYJ,~>
li?GQX8p*:JH5]M[/[<0pAaFYJ,~>
li?GQX8p*:JH5]M[/[<0pAaFYJ,~>
li?GQX8p*:JH5]M[/[<0pAaFYJ,~>
li?GQX8p*:JH5]M[/[<0pAaFYJ,~>
li?GQX8p*:JH5]M[/[<0pAaFYJ,~>
li?GQX8p*:JH5]M[/[<0pAaFYJ,~>
li?GQX8p*:JH5]M[/[<0pAaFYJ,~>
li?GQX8p*:JH5]M[/[<0pAaFYJ,~>
li?GQX8p*:JH5ZL[K!E1pAaFYJ,~>
li?GQX8p*:JH5ZL[K!E1pAaFYJ,~>
li?GQX8p*:JH5ZL[K!E1pAaFYJ,~>
li?GQX8p*:JH5ZL[K!E1pAaFYJ,~>
li?GQX8p*:JH5ZL[K!E1pAaFYJ,~>
li?GQX8p*:JH5ZL[K!E1pAaFYJ,~>
li?GQX8p*:JH5ZL[K!E1pAaFYJ,~>
li?GQX8p*:JH5ZL[K!E1pAaFYJ,~>
li?GQX8p*:JH5ZL[K!E1pAaFYJ,~>
li?GQX8p*:JH5ZL[K!E1pAaFYJ,~>
li?GQX8p*:JH5ZL[K!E1pAaFYJ,~>
li?GQX8p*:JH5ZL[K!E1pAaFYJ,~>
li?GQX8p*:JH5ZL[K!E1pAaFYJ,~>
li?GQX8p*:JH5ZL[K!E1pAaFYJ,~>
li?GQX8p*:JH5ZL[K!E1pAaFYJ,~>
li?GQX8p*:JH5]M[f?@-iW&BIec4q8J,~>
li?GQX8p*:JH5]M[f?@-iW&BIec4q8J,~>
li?GQX8p*:JH5]M[f?@-iW&BIec4q8J,~>
li?GQi;`lWblGT[JH5]MQ2g:Qec4q8J,~>
li?GQi;`lWblGT[JH5]MQ2g:Qec4q8J,~>
li?GQi;`lWblGT[JH5]MQ2g:Qec4q8J,~>
li?MSrrCsVn,VAGrrBt:JH5]MQ2g:Qec4q8J,~>
li?MSrrCsVn,VAGrrBt:JH5]MQ2g:Qec4q8J,~>
li?MSrrCsVn,VAGrrBt:JH5]MQ2g:Qec4q8J,~>
li>90mf9![JcGfMPQ1(Oec4q8J,~>
li>90mf9![JcGfMPQ1(Oec4q8J,~>
li>90mf9![JcGfMPQ1(Oec4q8J,~>
li>90mf8sZK)h)7mf:o<lMuG~>
li>90mf8sZK)h)7mf:o<lMuG~>
li>90mf8sZK)h)7mf:o<lMuG~>
li>90mf8sZK`I57mf:o<lMuG~>
li>90mf8sZK`I57mf:o<lMuG~>
li>90mf8sZK`I57mf:o<lMuG~>
li>90mf8sZL&_5QOT4bLec4q8J,~>
li>90mf8sZL&_5QOT4bLec4q8J,~>
li>90mf8sZL&_5QOT4bLec4q8J,~>
li>90mf8pYLB*D8mf:o<lMuG~>
li>90mf8pYLB*D8mf:o<lMuG~>
li>90mf8pYLB*D8mf:o<lMuG~>
li>90mf8jWMZAb:mf:o<lMuG~>
li>90mf8jWMZAb:mf:o<lMuG~>
li>90mf8jWMZAb:mf:o<lMuG~>
li>90mf8jWMu\h:mf:o<lMuG~>
li>90mf8jWMu\h:mf:o<lMuG~>
li>90mf8jWMu\h:mf:o<lMuG~>
li>90mf8jWN<"n:mf:o<lMuG~>
li>90mf8jWN<"n:mf:o<lMuG~>
li>90mf8jWN<"n:mf:o<lMuG~>
li>90mf8jWNW=t:mf:o<lMuG~>
li>90mf8jWNW=t:mf:o<lMuG~>
li>90mf8jWNW=t:mf:o<lMuG~>
li>90mf8dUOT:7<mf:o<lMuG~>
li>90mf8dUOT:7<mf:o<lMuG~>
li>90mf8dUOT:7<mf:o<lMuG~>
li>90mf8aTP5pF=mf:o<lMuG~>
li>90mf8aTP5pF=mf:o<lMuG~>
li>90mf8aTP5pF=mf:o<lMuG~>
li>90mf8XQQN2g@mf:o<lMuG~>
li>90mf8XQQN2g@mf:o<lMuG~>
li>90mf8XQQN2g@mf:o<lMuG~>
li>90mf8UPR/i!Amf:o<lMuG~>
li>90mf8UPR/i!Amf:o<lMuG~>
li>90mf8UPR/i!Amf:o<lMuG~>
li>90mf8UPRK/'Amf:o<lMuG~>
li>90mf8UPRK/'Amf:o<lMuG~>
li>90mf8UPRK/'Amf:o<lMuG~>
li>90mf7q=dJr&'K`CK@ec4q8J,~>
li>90mf7q=dJr&'K`CK@ec4q8J,~>
li>90mf7q=dJr&'K`CK@ec4q8J,~>
li>90mf7q=e,S5(KE(B?ec4q8J,~>
li>90mf7q=e,S5(KE(B?ec4q8J,~>
li>90mf7q=e,S5(KE(B?ec4q8J,~>
li>90mf7q=e,S8)K)b9>ec4q8J,~>
li>90mf7q=e,S8)K)b9>ec4q8J,~>
li>90mf7q=e,S8)K)b9>ec4q8J,~>
li>90mf7q=e,S>+!+pf^mf:o<lMuG~>
li>90mf7q=e,S>+!+pf^mf:o<lMuG~>
li>90mf7q=e,S>+!+pf^mf:o<lMuG~>
li>90mf7q=e,S>+Jc>`Mmf:o<lMuG~>
li>90mf7q=e,S>+Jc>`Mmf:o<lMuG~>
li>90mf7q=e,S>+Jc>`Mmf:o<lMuG~>
li>90mf7q=e,SA,JcGcMmf:o<lMuG~>
li>90mf7q=e,SA,JcGcMmf:o<lMuG~>
li>90mf7q=e,SA,JcGcMmf:o<lMuG~>
li>90mf7q=e,SG.!6]rnrr;Eeec4q8J,~>
li>90mf7q=e,SG.!6]rnrr;Eeec4q8J,~>
li>90mf7q=e,SG.!6]rnrr;Eeec4q8J,~>
li>90mf7q=e,SG.JcG]Kmf:o<lMuG~>
li>90mf7q=e,SG.JcG]Kmf:o<lMuG~>
li>90mf7q=e,SG.JcG]Kmf:o<lMuG~>
li>90mf7q=e,SM0JcGWImf:o<lMuG~>
li>90mf7q=e,SM0JcGWImf:o<lMuG~>
li>90mf7q=e,SM0JcGWImf:o<lMuG~>
li>90mf7q=e,SP1!31VMqu?*bec4q8J,~>
li>90mf7q=e,SP1!31VMqu?*bec4q8J,~>
li>90mf7q=e,SP1!31VMqu?*bec4q8J,~>
li>90mf7q=e,SS2JcGQGmf:o<lMuG~>
li>90mf7q=e,SS2JcGQGmf:o<lMuG~>
li>90mf7q=e,SS2JcGQGmf:o<lMuG~>
li>90mf7q=e,SV3JcGNFmf:o<lMuG~>
li>90mf7q=e,SV3JcGNFmf:o<lMuG~>
li>90mf7q=e,SV3JcGNFmf:o<lMuG~>
li>90mf7q=ec4e4JcGKEmf:o<lMuG~>
li>90mf7q=ec4e4JcGKEmf:o<lMuG~>
li>90mf7q=ec4e4JcGKEmf:o<lMuG~>
li>90mf7q=ec4h5JcGHDmf:o<lMuG~>
li>90mf7q=ec4h5JcGHDmf:o<lMuG~>
li>90mf7q=ec4h5JcGHDmf:o<lMuG~>
li>90mf7q=ec4k6JcGECmf:o<lMuG~>
li>90mf7q=ec4k6JcGECmf:o<lMuG~>
li>90mf7q=ec4k6JcGECmf:o<lMuG~>
li>90mf7q=ec4n7JcGBBmf:o<lMuG~>
li>90mf7q=ec4n7JcGBBmf:o<lMuG~>
li>90mf7q=ec4n7JcGBBmf:o<lMuG~>
li>90mf7q=ec4q8JcG?Amf:o<lMuG~>
li>90mf7q=ec4q8JcG?Amf:o<lMuG~>
li>90mf7q=ec4q8JcG?Amf:o<lMuG~>
li>90mf7q=ec4t9JcG<@mf:o<lMuG~>
li>90mf7q=ec4t9JcG<@mf:o<lMuG~>
li>90mf7q=ec4t9JcG<@mf:o<lMuG~>
li>90mf7q=ec5":JcG9?mf:o<lMuG~>
li>90mf7q=ec5":JcG9?mf:o<lMuG~>
li>90mf7q=ec5":JcG9?mf:o<lMuG~>
li>90mf7q=ec5%;JcG6>mf:o<lMuG~>
li>90mf7q=ec5%;JcG6>mf:o<lMuG~>
li>90mf7q=ec5%;JcG6>mf:o<lMuG~>
li>90mf7q=ec5(<JcG3=mf:o<lMuG~>
li>90mf7q=ec5(<JcG3=mf:o<lMuG~>
li>90mf7q=ec5(<JcG3=mf:o<lMuG~>
li>90mf7q=e,St=JcG0<mf:o<lMuG~>
li>90mf7q=e,St=JcG0<mf:o<lMuG~>
li>90mf7q=e,St=JcG0<mf:o<lMuG~>
li>90mf7q=e,T">JcG-;mf:o<lMuG~>
li>90mf7q=e,T">JcG-;mf:o<lMuG~>
li>90mf7q=e,T">JcG-;mf:o<lMuG~>
li>90mf7q=e,T%?JcG*:mf:o<lMuG~>
li>90mf7q=e,T%?JcG*:mf:o<lMuG~>
li>90mf7q=e,T%?JcG*:mf:o<lMuG~>
li>90mf7q=e,T(@JcG'9mf:o<lMuG~>
li>90mf7q=e,T(@JcG'9mf:o<lMuG~>
li>90mf7q=e,T(@JcG'9mf:o<lMuG~>
li>90mf7q=JcE"Tmf:o<lMuG~>
li>90mf7q=JcE"Tmf:o<lMuG~>
li>90mf7q=JcE"Tmf:o<lMuG~>
li>90mf7q=JcE"Tmf:o<lMuG~>
li>90mf7q=JcE"Tmf:o<lMuG~>
li>90mf7q=JcE"Tmf:o<lMuG~>
li>90mf7q=JcE"Tmf:o<lMuG~>
li>90mf7q=JcE"Tmf:o<lMuG~>
li>90mf7q=JcE"Tmf:o<lMuG~>
li>90mf7q=JcE"Tmf:o<lMuG~>
li>90mf7q=JcE"Tmf:o<lMuG~>
li>90mf7q=JcE"Tmf:o<lMuG~>
li>90mf7q=JcE"Tmf:o<lMuG~>
li>90mf7q=JcE"Tmf:o<lMuG~>
li>90mf7q=JcE"Tmf:o<lMuG~>
li>90mf7q=JcE"Tmf:o<lMuG~>
li>90mf7q=JcE"Tmf:o<lMuG~>
li>90mf7q=JcE"Tmf:o<lMuG~>
li>90mf7q=JcE"Tmf:o<lMuG~>
li>90mf7q=JcE"Tmf:o<lMuG~>
li>90mf7q=JcE"Tmf:o<lMuG~>
li>90mf7q=JcE"Tmf:o<lMuG~>
li>90mf7q=JcE"Tmf:o<lMuG~>
li>90mf7q=JcE"Tmf:o<lMuG~>
li>90mf7q=JcE"Tmf:o<lMuG~>
li>90mf7q=JcE"Tmf:o<lMuG~>
li>90mf7q=JcE"Tmf:o<lMuG~>
li>90mf7q=JcE"Tmf:o<lMuG~>
li>90mf7q=JcE"Tmf:o<lMuG~>
li>90mf7q=JcE"Tmf:o<lMuG~>
li>90mf7q=JcE"Tmf:o<lMuG~>
li>90mf7q=JcE"Tmf:o<lMuG~>
li>90mf7q=JcE"Tmf:o<lMuG~>
li>90mf7q=JcE"Tmf:o<lMuG~>
li>90mf7q=JcE"Tmf:o<lMuG~>
li>90mf7q=JcE"Tmf:o<lMuG~>
li>90mf7q=JcE"Tmf:o<lMuG~>
li>90mf7q=JcE"Tmf:o<lMuG~>
li>90mf7q=JcE"Tmf:o<lMuG~>
li>90mf7q=oDegjnc&RhJcF0umf:o<lMuG~>
li>90mf7q=oDegjnc&RhJcF0umf:o<lMuG~>
li>90mf7q=oDegjnc&RhJcF0umf:o<lMuG~>
li>90mf7q=JcE"Tmf:o<lMuG~>
li>90mf7q=JcE"Tmf:o<lMuG~>
li>90mf7q=JcE"Tmf:o<lMuG~>
li>90mf7q=p&>!lJcEIamf:o<lMuG~>
li>90mf7q=p&>!lJcEIamf:o<lMuG~>
li>90mf7q=p&>!lJcEIamf:o<lMuG~>
li>90mf7q=JcE"Tmf:o<lMuG~>
li>90mf7q=JcE"Tmf:o<lMuG~>
li>90mf7q=JcE"Tmf:o<lMuG~>
li>90mf7q=p\t3nlMghaJcF7"mf:o<lMuG~>
li>90mf7q=p\t3nlMghaJcF7"mf:o<lMuG~>
li>90mf7q=p\t3nlMghaJcF7"mf:o<lMuG~>
li>90mf7q=JcE%U!!*#unc75?lMuG~>
li>90mf7q=JcE%U!!*#unc75?lMuG~>
li>90mf7q=JcE%U!!*#unc75?lMuG~>
li>90mf7q=qZ$QqJcE@^!!*#unc75?lMuG~>
li>90mf7q=qZ$QqJcE@^!!*#unc75?lMuG~>
li>90mf7q=qZ$QqJcE@^!!*#unc75?lMuG~>
li>90mf7q=p\t6mJcE@^!!*#up&P-mrrC[NlMuG~>
li>90mf7q=p\t6mJcE@^!!*#up&P-mrrC[NlMuG~>
li>90mf7q=p\t6mJcE@^!!*#up&P-mrrC[NlMuG~>
li>6/n,S%>r;ZcsJcE4Z!!*#up&NSAlMuG~>
li>6/n,S%>r;ZcsJcE4Z!!*#up&NSAlMuG~>
li>6/n,S%>r;ZcsJcE4Z!!*#up&NSAlMuG~>
li><1!!*#uoDnpkrr@WMJcDtSrrDcmrrCULlMuG~>
li><1!!*#uoDnpkrr@WMJcDtSrrDcmrrCULlMuG~>
li><1!!*#uoDnpkrr@WMJcDtSrrDcmrrCULlMuG~>
li><1!!*#uoDjIBr;Q`sJcC<$p]'OZJ,~>
li><1!!*#uoDjIBr;Q`sJcC<$p]'OZJ,~>
li><1!!*#uoDjIBr;Q`sJcC<$p]'OZJ,~>
li>6/!!)Wjrr@WMJcC<$oDe+VJ,~>
li>6/!!)Wjrr@WMJcC<$oDe+VJ,~>
li>6/!!)Wjrr@WMJcC<$oDe+VJ,~>
li;V:\c2X0JcC<$p&F=XJ,~>
li;V:\c2X0JcC<$p&F=XJ,~>
li;V:\c2X0JcC<$p&F=XJ,~>
li;V:JcC<$XT.SdJ,~>
li;V:JcC<$XT.SdJ,~>
li;V:JcC<$XT.SdJ,~>
li;V:]`8!3JcC<$oDe+VJ,~>
li;V:]`8!3JcC<$oDe+VJ,~>
li;V:]`8!3JcC<$oDe+VJ,~>
li;V:JcC<$XT.SdJ,~>
li;V:JcC<$XT.SdJ,~>
li;V:JcC<$XT.SdJ,~>
li;V:^An35JcC<$nc.nTJ,~>
li;V:^An35JcC<$nc.nTJ,~>
li;V:^An35JcC<$nc.nTJ,~>
li;V:_#FB7gA_-QJcD&9lMuG~>
li;V:_#FB7gA_-QJcD&9lMuG~>
li;V:_#FB7gA_-QJcD&9lMuG~>
li;V:_#FB7JcC<$mf2SQJ,~>
li;V:_#FB7JcC<$mf2SQJ,~>
li;V:_#FB7JcC<$mf2SQJ,~>
li;V:_Z'T9JcC<$m/QAOJ,~>
li;V:_Z'T9JcC<$m/QAOJ,~>
li;V:_Z'T9JcC<$m/QAOJ,~>
li;V:_Z'T9JcC<$m/QAOJ,~>
li;V:_Z'T9JcC<$m/QAOJ,~>
li;V:_Z'T9JcC<$m/QAOJ,~>
li;V:`;]f;JcC<$lMp/MJ,~>
li;V:`;]f;JcC<$lMp/MJ,~>
li;V:`;]f;JcC<$lMp/MJ,~>
li;V:`;]f;JcC<$lMp/MJ,~>
li;V:`;]f;JcC<$lMp/MJ,~>
li;V:`;]f;JcC<$lMp/MJ,~>
li;V:a8c/>JcC<$kl9rKJ,~>
li;V:a8c/>JcC<$kl9rKJ,~>
li;V:a8c/>JcC<$kl9rKJ,~>
li;V:a8Z,>JcC<$kPsiJJ,~>
li;V:a8Z,>JcC<$kPsiJJ,~>
li;V:a8Z,>JcC<$kPsiJJ,~>
li;V:ao;>@JcC<$jo=WHJ,~>
li;V:ao;>@JcC<$jo=WHJ,~>
li;V:ao;>@JcC<$jo=WHJ,~>
li;V:ao;>@JcC<$jo=WHJ,~>
li;V:ao;>@JcC<$jo=WHJ,~>
li;V:ao;>@JcC<$jo=WHJ,~>
li;V:bPqPBJcC<$j8\EFJ,~>
li;V:bPqPBJcC<$j8\EFJ,~>
li;V:bPqPBJcC<$j8\EFJ,~>
li;V:JcC<$XT.SdJ,~>
li;V:JcC<$XT.SdJ,~>
li;V:JcC<$XT.SdJ,~>
li;V:c2RbDJcC<$iW&3DJ,~>
li;V:c2RbDJcC<$iW&3DJ,~>
li;V:c2RbDJcC<$iW&3DJ,~>
li;V:JcC<$XT.SdJ,~>
li;V:JcC<$XT.SdJ,~>
li;V:JcC<$XT.SdJ,~>
li;V:d/X+Gs8N(1JcGKE!!%TMmJlJPJ,~>
li;V:d/X+Gs8N(1JcGKE!!%TMmJlJPJ,~>
li;V:d/X+Gs8N(1JcGKE!!%TMmJlJPJ,~>
li;V:JcC<$XT.SdJ,~>
li;V:JcC<$XT.SdJ,~>
li;V:JcC<$XT.SdJ,~>
li;V:df0:IJcG3=rr@WMnGheSJ,~>
li;V:df0:IJcG3=rr@WMnGheSJ,~>
li;V:df0:IJcG3=rr@WMnGheSJ,~>
li;V:JcC<$XT.SdJ,~>
li;V:JcC<$XT.SdJ,~>
li;V:JcC<$XT.SdJ,~>
li;V:eGfLKJcFs6!!%TMo`+4WJ,~>
li;V:eGfLKJcFs6!!%TMo`+4WJ,~>
li;V:eGfLKJcFs6!!%TMo`+4WJ,~>
li;V:JcC<$XT.SdJ,~>
li;V:JcC<$XT.SdJ,~>
li;V:JcC<$XT.SdJ,~>
li><1!!)6_rrAqr!!%TMjT#5[JcGKElMuG~>
li><1!!)6_rrAqr!!%TMjT#5[JcGKElMuG~>
li><1!!)6_rrAqr!!%TMjT#5[JcGKElMuG~>
li>90kQ$26JcC<$qZ#j]J,~>
li>90kQ$26JcC<$qZ#j]J,~>
li>90kQ$26JcC<$qZ#j]J,~>
li>90kQ%O\rr@WMJcF=$lMuG~>
li>90kQ%O\rr@WMJcF=$lMuG~>
li>90kQ%O\rr@WMJcF=$lMuG~>
li>90kQ$26JcC<$qZ#j]J,~>
li>90kQ$26JcC<$qZ#j]J,~>
li>90kQ$26JcC<$qZ#j]J,~>
li>90kQ%U^!!%TMh>dKTJcGQGlMuG~>
li>90kQ%U^!!%TMh>dKTJcGQGlMuG~>
li>90kQ%U^!!%TMh>dKTJcGQGlMuG~>
li>90kQ$26LAq8QJcGHDlMuG~>
li>90kQ$26LAq8QJcGHDlMuG~>
li>90kQ$26LAq8QJcGHDlMuG~>
li>E4rrE&uklCb`rrB8&!!%TMf`(pOJcGWIlMuG~>
li>E4rrE&uklCb`rrB8&!!%TMf`(pOJcGWIlMuG~>
li>E4rrE&uklCb`rrB8&!!%TMf`(pOJcGWIlMuG~>
li><1!<2-]JcC<$JcGWIlMuG~>
li><1!<2-]JcC<$JcGWIlMuG~>
li><1!<2-]JcC<$JcGWIlMuG~>
li>?2j8cC`!!%TMJcF'rlMuG~>
li>?2j8cC`!!%TMJcF'rlMuG~>
li>?2j8cC`!!%TMJcF'rlMuG~>
li>?2j8c=^!6g#oJcF-tlMuG~>
li>?2j8c=^!6g#oJcF-tlMuG~>
li>?2j8c=^!6g#oJcF-tlMuG~>
li>K6rrE*!j8f2Z!!'J-rr@WMdf0:IJcG]KlMuG~>
li>K6rrE*!j8f2Z!!'J-rr@WMdf0:IJcG]KlMuG~>
li>K6rrE*!j8f2Z!!'J-rr@WMdf0:IJcG]KlMuG~>
li>E4i;`kWJcC<$JcG`LlMuG~>
li>E4i;`kWJcC<$JcG`LlMuG~>
li>E4i;`kWJcC<$JcG`LlMuG~>
li>E4huL4crr@WMJcEpnlMuG~>
li>E4huL4crr@WMJcEpnlMuG~>
li>E4huL4crr@WMJcEpnlMuG~>
li>E4huJ?.JcC<$rr;9aJ,~>
li>E4huJ?.JcC<$rr;9aJ,~>
li>E4huJ?.JcC<$rr;9aJ,~>
li>E4huJ?.JcC<$rr;9aJ,~>
li>E4huJ?.JcC<$rr;9aJ,~>
li>E4huJ?.JcC<$rr;9aJ,~>
li>E4huJ?.JcC<$rr;9aJ,~>
li>E4huJ?.JcC<$rr;9aJ,~>
li>E4huJ?.JcC<$rr;9aJ,~>
li>Q8!!*#uhuNcV!!'\3!!%TMJcEgklMuG~>
li>Q8!!*#uhuNcV!!'\3!!%TMJcEgklMuG~>
li>Q8!!*#uhuNcV!!'\3!!%TMJcEgklMuG~>
li>K6gAlg)JcC<$lMuG~>
li>K6gAlg)JcC<$lMuG~>
li>K6gAlg)JcC<$lMuG~>
li>K6gAlg)JcC<$lMuG~>
li>K6gAlg)JcC<$lMuG~>
li>K6gAlg)JcC<$lMuG~>
li>K6gAq9R!!%TMJcCE'lMuG~>
li>K6gAq9R!!%TMJcCE'lMuG~>
li>K6gAq9R!!%TMJcCE'lMuG~>
li>W:!!*#ugAq9R!!%TMJcCE'lMuG~>
li>W:!!*#ugAq9R!!%TMJcCE'lMuG~>
li>W:!!*#ugAq9R!!%TMJcCE'lMuG~>
li>Q8!WDrL!.k0$s+C@;!.Y~>
li>Q8!WDrL!.k0$s+C@;!.Y~>
li>Q8!WDrL!.k0$s+C@;!.Y~>
li>T9!q(hSmf3CgmHjn)s+13&s6BZ8~>
li>T9!q(hSmf3CgmHjn)s+13&s6BZ8~>
li>T9!q(hSmf3CgmHjn)s+13&s6BZ8~>
li>T9m/[.cm/Xj"!!%TMJcEgklMuG~>
li>T9m/[.cm/Xj"!!%TMJcEgklMuG~>
li>T9m/[.cm/Xj"!!%TMJcEgklMuG~>
li>T9li@(cm/V_;JcCB&lMuG~>
li>T9li@(cm/V_;JcCB&lMuG~>
li>T9li@(cm/V_;JcCB&lMuG~>
li>]<!!*#um/[1dm/[1drr@WMJcCN*lMuG~>
li>]<!!*#um/[1dm/[1drr@WMJcCN*lMuG~>
li>]<!!*#um/[1dm/[1drr@WMJcCN*lMuG~>
li>]<!!*#un,NIfqu?*bJcCT,!<.QLr;Z'_J,~>
li>]<!!*#un,NIfqu?*bJcCT,!<.QLr;Z'_J,~>
li>]<!!*#un,NIfqu?*bJcCT,!<.QLr;Z'_J,~>
li>Z;m/[.crrE*!m/Xj"!!%TMci3tFJcG]KlMuG~>
li>Z;m/[.crrE*!m/Xj"!!%TMci3tFJcG]KlMuG~>
li>Z;m/[.crrE*!m/Xj"!!%TMci3tFJcG]KlMuG~>
li>Z;m/["_m/XWq!<.QLJcF*slMuG~>
li>Z;m/["_m/XWq!<.QLJcF*slMuG~>
li>Z;m/["_m/XWq!<.QLJcF*slMuG~>
li>Z;m/["_m/Xcurr@WMJcF!plMuG~>
li>Z;m/["_m/Xcurr@WMJcF!plMuG~>
li>Z;m/["_m/Xcurr@WMJcF!plMuG~>
li>Z;m/["_m/V_;JcCH(lMuG~>
li>Z;m/["_m/V_;JcCH(lMuG~>
li>Z;m/["_m/V_;JcCH(lMuG~>
li>f?rrE*!m/["_m/[.c!!'V1!!%TMf`(pOJcGWIlMuG~>
li>f?rrE*!m/["_m/[.c!!'V1!!%TMf`(pOJcGWIlMuG~>
li>f?rrE*!m/["_m/[.c!!'V1!!%TMf`(pOJcGWIlMuG~>
li>Z;mf<(]mf7q=JcCH(lMuG~>
li>Z;mf<(]mf7q=JcCH(lMuG~>
li>Z;mf<(]mf7q=JcCH(lMuG~>
li>`=m/[1drrE&urrE&umJs]q!!%TMJcF4!lMuG~>
li>`=m/[1drrE&urrE&umJs]q!!%TMJcF4!lMuG~>
li>`=m/[1drrE&urrE&umJs]q!!%TMJcF4!lMuG~>
li>`=m/Zk[m/V_;JcCN*lMuG~>
li>`=m/Zk[m/V_;JcCN*lMuG~>
li>`=m/Zk[m/V_;JcCN*lMuG~>
li>lArrE*!m/Zk[m/[.c!!'P/rr@WMi;`fWJcGQGlMuG~>
li>lArrE*!m/Zk[m/[.c!!'P/rr@WMi;`fWJcGQGlMuG~>
li>lArrE*!m/Zk[m/[.c!!'P/rr@WMi;`fWJcGQGlMuG~>
li>`=m/Zk[m/R-AJcC<$M#Zc@J,~>
li>`=m/Zk[m/R-AJcC<$M#Zc@J,~>
li>`=m/Zk[m/R-AJcC<$M#Zc@J,~>
li>f?lN$YYl2\3k!!%TMjSo2[JcGHDlMuG~>
li>f?lN$YYl2\3k!!%TMjSo2[JcGHDlMuG~>
li>f?lN$YYl2\3k!!%TMjSo2[JcGHDlMuG~>
li>f?m/ZhZ!!*#um/V_;R/[-dJcGBBlMuG~>
li>f?m/ZhZ!!*#um/V_;R/[-dJcGBBlMuG~>
li>f?m/ZhZ!!*#um/V_;R/[-dJcGBBlMuG~>
li>f?m/[1drrDlp!!*#um/V_;R/[-dJcGBBlMuG~>
li>f?m/[1drrDlp!!*#um/V_;R/[-dJcGBBlMuG~>
li>f?m/[1drrDlp!!*#um/V_;R/[-dJcGBBlMuG~>
li>f?m/Z\Vm/XHl!!%TMlMghaJcG<@lMuG~>
li>f?m/Z\Vm/XHl!!%TMlMghaJcG<@lMuG~>
li>f?m/Z\Vm/XHl!!%TMlMghaJcG<@lMuG~>
li>rC!!*#um/Z\VmK!7drrBM-!!%TMlMghaJcG<@lMuG~>
li>rC!!*#um/Z\VmK!7drrBM-!!%TMlMghaJcG<@lMuG~>
li>rC!!*#um/Z\VmK!7drrBM-!!%TMlMghaJcG<@lMuG~>
li>i@mf<@e!!)Zk!!*#umf9Tl!!%TMn,NCfJcG6>lMuG~>
li>i@mf<@e!!)Zk!!*#umf9Tl!!%TMn,NCfJcG6>lMuG~>
li>i@mf<@e!!)Zk!!*#umf9Tl!!%TMn,NCfJcG6>lMuG~>
li>oBm/[.c!!)Zk!!*#um/XHl!!%TMn,NCfJcG6>lMuG~>
li>oBm/[.c!!)Zk!!*#um/XHl!!%TMn,NCfJcG6>lMuG~>
li>oBm/[.c!!)Zk!!*#um/XHl!!%TMn,NCfJcG6>lMuG~>
li>oBli?GQm/XBjrr@WMpAY*mJcG'9lMuG~>
li>oBli?GQm/XBjrr@WMpAY*mJcG'9lMuG~>
li>oBli?GQm/XBjrr@WMpAY*mJcG'9lMuG~>
li?#E!!*#um/ZPRm/[1drrBD*!!%TMpAY*mJcG'9lMuG~>
li?#E!!*#um/ZPRm/[1drrBD*!!%TMpAY*mJcG'9lMuG~>
li?#E!!*#um/ZPRm/[1drrBD*!!%TMpAY*mJcG'9lMuG~>
li>oBli?GQm/[1cXoAA$JcC<$j8\EFJ,~>
li>oBli?GQm/[1cXoAA$JcC<$j8\EFJ,~>
li>oBli?GQm/[1cXoAA$JcC<$j8\EFJ,~>
li>uD!mCFNm/ZPRlN"'e!!%TMJcFd1lMuG~>
li>uD!mCFNm/ZPRlN"'e!!%TMJcFd1lMuG~>
li>uD!mCFNm/ZPRlN"'e!!%TMJcFd1lMuG~>
li>uDm/[.c!!)NgrrE*!m/X3e!!%TMJcFj3lMuG~>
li>uDm/[.c!!)NgrrE*!m/X3e!!%TMJcFj3lMuG~>
li>uDm/[.c!!)NgrrE*!m/X3e!!%TMJcFj3lMuG~>
li>uDm/[.c!!)Bcm/X'a!<.QLJcG!7lMuG~>
li>uDm/[.c!!)Bcm/X'a!<.QLJcG!7lMuG~>
li>uDm/[.c!!)Bcm/X'a!<.QLJcG!7lMuG~>
li>uDm/ZAMm/X-crr@WMJcFs6lMuG~>
li>uDm/ZAMm/X-crr@WMJcFs6lMuG~>
li>uDm/ZAMm/X-crr@WMJcFs6lMuG~>
li?,HrrE*!m/ZAMm/[.c!!%TMJcCo5lMuG~>
li?,HrrE*!m/ZAMm/[.c!!%TMJcCo5lMuG~>
li?,HrrE*!m/ZAMm/[.c!!%TMJcCo5lMuG~>
li?&F!6a^/kl9rKWW2tuJcC<$lMp/MJ,~>
li?&F!6a^/kl9rKWW2tuJcC<$lMp/MJ,~>
li?&F!6a^/kl9rKWW2tuJcC<$lMp/MJ,~>
li?&FlN$/K!<2<bJcC<$OT4VHJ,~>
li?&FlN$/K!<2<bJcC<$OT4VHJ,~>
li?&FlN$/K!<2<bJcC<$OT4VHJ,~>
li?&Fm/[1drrDEcrrE*!m/X$`!!%TMJcG*:lMuG~>
li?&Fm/[1drrDEcrrE*!m/X$`!!%TMJcG*:lMuG~>
li?&Fm/[1drrDEcrrE*!m/X$`!!%TMJcG*:lMuG~>
li?&Fm/Z5Im/V_;JcCi3lMuG~>
li?&Fm/Z5Im/V_;JcCi3lMuG~>
li?&Fm/Z5Im/V_;JcCi3lMuG~>
li?&Fm/Z5Im/[.c!!%TM!WN.Ns-E]N!.Y~>
li?&Fm/Z5Im/[.c!!%TM!WN.Ns-E]N!.Y~>
li?&Fm/Z5Im/[.c!!%TM!WN.Ns-E]N!.Y~>
li?2JrrE*!m/Z2H!6ag2rr2ruVZ-Yqh#@?SJcD&9lMuG~>
li?2JrrE*!m/Z2H!6ag2rr2ruVZ-Yqh#@?SJcD&9lMuG~>
li?2JrrE*!m/Z2H!6ag2rr2ruVZ-Yqh#@?SJcD&9lMuG~>
li?,Hm/R/SA``pl!<3#d!!"1?rr<%Ms+14<s6BZ8~>
li?,Hm/R/SA``pl!<3#d!!"1?rr<%Ms+14<s6BZ8~>
li?,Hm/R/SA``pl!<3#d!!"1?rr<%Ms+14<s6BZ8~>
li?,Hm/R.ci;`0ET`5!8JcC<$p&F=XJ,~>
li?,Hm/R.ci;`0ET`5!8JcC<$p&F=XJ,~>
li?,Hm/R.ci;`0ET`5!8JcC<$p&F=XJ,~>
li?8L!!*#um/[1drrD-[m/[.c!!&ttrr@WMJcG9?lMuG~>
li?8L!!*#um/[1drrD-[m/[.c!!&ttrr@WMJcG9?lMuG~>
li?8L!!*#um/[1drrD-[m/[.c!!&ttrr@WMJcG9?lMuG~>
li?8L!!*#um/Z)Em/[.c!!%TMJcD&9lMuG~>
li?8L!!*#um/Z)Em/[.c!!%TMJcD&9lMuG~>
li?8L!!*#um/Z)Em/[.c!!%TMJcD&9lMuG~>
li?5Kl2]cBl2[RY!!%TMJcGEClMuG~>
li?5Kl2]cBl2[RY!!%TMJcGEClMuG~>
li?5Kl2]cBl2[RY!!%TMJcGEClMuG~>
li?5Kli>i@li<UV!6]rnJcGTHlMuG~>
li?5Kli>i@li<UV!6]rnJcGTHlMuG~>
li?5Kli>i@li<UV!6]rnJcGTHlMuG~>
li?5Km/Yl?m/WgZ!!%TMJcGKElMuG~>
li?5Km/Yl?m/WgZ!!%TMJcGKElMuG~>
li?5Km/Yl?m/WgZ!!%TMJcGKElMuG~>
li?5Km/Yl?m/V_;JcD#8lMuG~>
li?5Km/Yl?m/V_;JcD#8lMuG~>
li?5Km/Yl?m/V_;JcD#8lMuG~>
li?>N!!*#uZN1%*rrAenrr@WMJcGTHlMuG~>
li?>N!!*#uZN1%*rrAenrr@WMJcGTHlMuG~>
li?>N!!*#uZN1%*rrAenrr@WMJcGTHlMuG~>
li?2JZN,RVJcD#8lMuG~>
li?2JZN,RVJcD#8lMuG~>
li?2JZN,RVJcD#8lMuG~>
li?;MXoP'nrr@WMJcGZJlMuG~>
li?;MXoP'nrr@WMJcGZJlMuG~>
li?;MXoP'nrr@WMJcGZJlMuG~>
li?;MXoO%QJcD):lMuG~>
li?;MXoO%QJcD):lMuG~>
li?;MXoO%QJcD):lMuG~>
li?DP!W`9#XoSJ$!!&Yk!!%TMJcG`LlMuG~>
li?DP!W`9#XoSJ$!!&Yk!!%TMJcG`LlMuG~>
li?DP!W`9#XoSJ$!!&Yk!!%TMJcG`LlMuG~>
li?;MXoO%QJcD):lMuG~>
li?;MXoO%QJcD):lMuG~>
li?;MXoO%QJcD):lMuG~>
li?AO!WMqu!!2rpL&V,QJcD&9lMuG~>
li?AO!WMqu!!2rpL&V,QJcD&9lMuG~>
li?AO!WMqu!!2rpL&V,QJcD&9lMuG~>
li?AO!<?]6!!+8DJcC<$RK)RQJ,~>
li?AO!<?]6!!+8DJcC<$RK)RQJ,~>
li?AO!<?]6!!+8DJcC<$RK)RQJ,~>
li?AOWW8Og!!)He!!%TMPlL%LJ,~>
li?AOWW8Og!!)He!!%TMPlL%LJ,~>
li?AOWW8Og!!)He!!%TMPlL%LJ,~>
li?AOWW7VMJcD/<lMuG~>
li?AOWW7VMJcD/<lMuG~>
li?AOWW7VMJcD/<lMuG~>
li?MSrrE*!WW<%u!!&Si!!)Wjrr@WMP5jhJJ,~>
li?MSrrE*!WW<%u!!&Si!!)Wjrr@WMP5jhJJ,~>
li?MSrrE*!WW<%u!!&Si!!)Wjrr@WMP5jhJJ,~>
li?AOWW3%uJcC<$RfD[RJ,~>
li?AOWW3%uJcC<$RfD[RJ,~>
li?AOWW3%uJcC<$RfD[RJ,~>
li?GQV#Z)HJcD8?lMuG~>
li?GQV#Z)HJcD8?lMuG~>
li?GQV#Z)HJcD8?lMuG~>
li?GQlN#92m/V_;JcD8?lMuG~>
li?GQlN#92m/V_;JcD8?lMuG~>
li?GQlN#92m/V_;JcD8?lMuG~>
li?GQli7%bci<A4JcC<$SH%mTJ,~>
li?GQli7%bci<A4JcC<$SH%mTJ,~>
li?GQli7%bci<A4JcC<$SH%mTJ,~>
li?GQm/[1drrCLIli;V:JcD8?lMuG~>
li?GQm/[1drrCLIli;V:JcD8?lMuG~>
li?GQm/[1drrCLIli;V:JcD8?lMuG~>
li?SU!!*#um/[1d!!(FHm/[.c!!%TMJcDABlMuG~>
li?SU!!*#um/[1d!!(FHm/[.c!!%TMJcDABlMuG~>
li?SU!!*#um/[1d!!(FHm/[.c!!%TMJcDABlMuG~>
li?JRli>?2li;V:JcD8?lMuG~>
li?JRli>?2li;V:JcD8?lMuG~>
li?JRli>?2li;V:JcD8?lMuG~>
li?MSlN#61l2ZD8JcD>AlMuG~>
li?MSlN#61l2ZD8JcD>AlMuG~>
li?MSlN#61l2ZD8JcD>AlMuG~>
li?MSmK!7d!!(CG!!*#um/V_;JcD>AlMuG~>
li?MSmK!7d!!(CG!!*#um/V_;JcD>AlMuG~>
li?MSmK!7d!!(CG!!*#um/V_;JcD>AlMuG~>
li?YW!!*#um/[1d!!(CG!!*#um/[1drr@WMJcDJElMuG~>
li?YW!!*#um/[1d!!(CG!!*#um/[1drr@WMJcDJElMuG~>
li?YW!!*#um/[1d!!(CG!!*#um/[1drr@WMJcDJElMuG~>
li?VV!:K.QaoC]-!$QpnJcDDClMuG~>
li?VV!:K.QaoC]-!$QpnJcDDClMuG~>
li?VV!:K.QaoC]-!$QpnJcDDClMuG~>
li?VVl2\s+lMuM9JcDDClMuG~>
li?VVl2\s+lMuM9JcDDClMuG~>
li?VVl2\s+lMuM9JcDDClMuG~>
li?VVl2\s+lMuM9JcDDClMuG~>
li?VVl2\s+lMuM9JcDDClMuG~>
li?VVl2\s+lMuM9JcDDClMuG~>
li?VVlN#$+lMuM9JcDDClMuG~>
li?VVlN#$+lMuM9JcDDClMuG~>
li?VVlN#$+lMuM9JcDDClMuG~>
li?VVm/[.c!!(7CrrE*!m/V_;JcDDClMuG~>
li?VVm/[.c!!(7CrrE*!m/V_;JcDDClMuG~>
li?VVm/[.c!!(7CrrE*!m/V_;JcDDClMuG~>
li?bZrrE&umJt3*m/[1drr@WMJcDPGlMuG~>
li?bZrrE&umJt3*m/[1drr@WMJcDPGlMuG~>
li?bZrrE&umJt3*m/[1drr@WMJcDPGlMuG~>
li?\XlN"m'lMuM9JcDJElMuG~>
li?\XlN"m'lMuM9JcDJElMuG~>
li?\XlN"m'lMuM9JcDJElMuG~>
li?\XlN"m'!35AcJcC<$UAsNZJ,~>
li?\XlN"m'!35AcJcC<$UAsNZJ,~>
li?\XlN"m'!35AcJcC<$UAsNZJ,~>
li?\XlN"s)rrE*!m/V_;JcDJElMuG~>
li?\XlN"s)rrE*!m/V_;JcDJElMuG~>
li?\XlN"s)rrE*!m/V_;JcDJElMuG~>
li?\Xli7%b_Z0!'JcC<$UAsNZJ,~>
li?\Xli7%b_Z0!'JcC<$UAsNZJ,~>
li?\Xli7%b_Z0!'JcC<$UAsNZJ,~>
li?bZ!WN#a!<2uu!6"p)!<2uu!.k0$s/,h^!.Y~>
li?bZ!WN#a!<2uu!6"p)!<2uu!.k0$s/,h^!.Y~>
li?bZ!WN#a!<2uu!6"p)!<2uu!.k0$s/,h^!.Y~>
li?bZ!NF-,!5SX%!<2uu!.k0$s/,h^!.Y~>
li?bZ!NF-,!5SX%!<2uu!.k0$s/,h^!.Y~>
li?bZ!NF-,!5SX%!<2uu!.k0$s/,h^!.Y~>
li?bZlN"a#l2ZD8JcDSHlMuG~>
li?bZlN"a#l2ZD8JcDSHlMuG~>
li?bZlN"a#l2ZD8JcDSHlMuG~>
li?bZm/R.c^&RF!JcC<$V>oi]J,~>
li?bZm/R.c^&RF!JcC<$V>oi]J,~>
li?bZm/R.c^&RF!JcC<$V>oi]J,~>
li?bZm/[1drrBt:!!*#um/V_;JcDSHlMuG~>
li?bZm/[1drrBt:!!*#um/V_;JcDSHlMuG~>
li?bZm/[1drrBt:!!*#um/V_;JcDSHlMuG~>
li?bZm/Xg!li;V:JcDSHlMuG~>
li?bZm/Xg!li;V:JcDSHlMuG~>
li?bZm/Xg!li;V:JcDSHlMuG~>
li?bZm/Xg!li;V:JcDSHlMuG~>
li?bZm/Xg!li;V:JcDSHlMuG~>
li?bZm/Xg!li;V:JcDSHlMuG~>
li;V:JcC<$XT.SdJ,~>
li;V:JcC<$XT.SdJ,~>
li;V:JcC<$XT.SdJ,~>
li;V:JcC<$XT.SdJ,~>
li;V:JcC<$XT.SdJ,~>
li;V:JcC<$XT.SdJ,~>
li;V:JcC<$XT.SdJ,~>
li;V:JcC<$XT.SdJ,~>
li;V:JcC<$XT.SdJ,~>
li;V:JcC<$XT.SdJ,~>
li;V:JcC<$XT.SdJ,~>
li;V:JcC<$XT.SdJ,~>
li;V:JcC<$XT.SdJ,~>
li;V:JcC<$XT.SdJ,~>
li;V:JcC<$XT.SdJ,~>
li;V:JcC<$XT.SdJ,~>
li;V:JcC<$XT.SdJ,~>
li;V:JcC<$XT.SdJ,~>
li;V:JcC<$XT.SdJ,~>
li;V:JcC<$XT.SdJ,~>
li;V:JcC<$XT.SdJ,~>
li;V:JcC<$XT.SdJ,~>
li;V:JcC<$XT.SdJ,~>
li;V:JcC<$XT.SdJ,~>
li;V:JcC<$XT.SdJ,~>
li;V:JcC<$XT.SdJ,~>
li;V:JcC<$XT.SdJ,~>
li;V:JcC<$XT.SdJ,~>
li;V:JcC<$XT.SdJ,~>
li;V:JcC<$XT.SdJ,~>
li;V:JcC<$XT.SdJ,~>
li;V:JcC<$XT.SdJ,~>
li;V:JcC<$XT.SdJ,~>
li;V:JcC<$XT.SdJ,~>
li;V:JcC<$XT.SdJ,~>
li;V:JcC<$XT.SdJ,~>
JH16$JH16$J,~>
JH16$JH16$J,~>
JH16$JH16$J,~>
JH16$JH16$J,~>
JH16$JH16$J,~>
JH16$JH16$J,~>
JH16$JH16$J,~>
JH16$JH16$J,~>
JH16$JH16$J,~>
JH16$JH16$J,~>
JH16$JH16$J,~>
JH16$JH16$J,~>
JH16$JH16$J,~>
JH16$JH16$J,~>
JH16$JH16$J,~>
JH16$JH16$J,~>
JH16$JH16$J,~>
JH16$JH16$J,~>
JH16$JH16$J,~>
JH16$JH16$J,~>
JH16$JH16$J,~>
JH16$JH16$J,~>
JH16$JH16$J,~>
JH16$JH16$J,~>
JH16$JH16$J,~>
JH16$JH16$J,~>
JH16$JH16$J,~>
JH16$JH16$J,~>
JH16$JH16$J,~>
JH16$JH16$J,~>
JH16$JH16$J,~>
JH16$JH16$J,~>
JH16$JH16$J,~>
JH16$JH16$J,~>
JH16$JH16$J,~>
JH16$JH16$J,~>
JH16$JH16$J,~>
JH16$JH16$J,~>
JH16$JH16$J,~>
JH16$JH16$J,~>
JH16$JH16$J,~>
JH16$JH16$J,~>
JH16$JH16$J,~>
JH16$JH16$J,~>
JH16$JH16$J,~>
JH16$JH16$J,~>
JH16$JH16$J,~>
JH16$JH16$J,~>
JH16$JH16$J,~>
JH16$JH16$J,~>
JH16$JH16$J,~>
JH16$JH16$J,~>
JH16$JH16$J,~>
JH16$JH16$J,~>
JH16$JH16$J,~>
JH16$JH16$J,~>
JH16$JH16$J,~>
JH16$JH16$J,~>
JH16$JH16$J,~>
JH16$JH16$J,~>
JH16$JH16$J,~>
JH16$JH16$J,~>
JH16$JH16$J,~>
%%EndData
showpage
%%Trailer
end
%%EOF
